[
  {
    "desc": "Contrat individuel base",
    "titre": "Contrat de formation à titre individuel",
    "slug": "contrat_individuel_base",
    "contenu": "<p style=\"text-align: center;\">(Articles L.6353-3 et suivants du Code du travail)</p>\r\nEntre les soussignés :\r\n\r\n<span class=\"locked keyword\">of:nom</span> organisme de formation (Siret <span class=\"locked keyword\">of:siret</span>) donr le siège sociel est situé à <span class=\"locked keyword\">of:adresse</span> <span class=\"locked keyword\">of:code_postal</span> <span class=\"locked keyword\">of:ville</span>.\r\nDéclaration d’activité enregistrée sous le numéro <span class=\"locked keyword\">of:no_of</span> auprès du préfet de la région Île-de-France.\r\n\r\nci-après désigné <strong>le prestataire</strong>.\r\n\r\net\r\n\r\n<span class=\"locked keyword\">client:nom</span>\r\n<span class=\"locked keyword\">client:adresse</span>\r\n<span class=\"locked keyword\">client:code_postal</span> <span class=\"locked keyword\">client:ville</span>\r\n\r\nci-après désigné <strong>le stagiaire</strong>.\r\n<h2>Article 1 : Objet</h2>\r\nEn exécution du présent contrat, l’organisme de formation s’engage à organiser l’action intitulée :\r\n\r\n<span class=\"locked keyword\">session:titre_formation</span>\r\n<h2>Article 2 : Nature et caractéristiques de l’action de formation</h2>\r\nL’action entre dans la catégorie des actions de <span class=\"locked keyword\">session:nature_formation</span> prévues par l’article L.6313-1 du Code du travail.\r\n\r\nElle a pour objectif :\r\n\r\n<span class=\"locked keyword\">session:objectifs</span>\r\n\r\nSa durée est fixée à <span class=\"locked keyword\">client:nb_heure_estime</span> heures.\r\n\r\nEffectif de la formation : <span class=\"locked keyword\">session:nb_confirmes</span>\r\n\r\nLieu : <span class=\"locked keyword\">session:lieu_nom</span>\r\n<span class=\"locked keyword\">session:lieu_adresse</span>\r\n<span class=\"locked keyword\">session:lieu_code_postal</span> <span class=\"locked keyword\">session:lieu_ville</span>\r\n\r\nContenus\r\n\r\n<span class=\"locked keyword\">session:programme</span>\r\n<h2>Article 3 : Niveau de connaissances préalables requis pour l’entrée en formation</h2>\r\n<span class=\"locked keyword\">session:prerequis</span>\r\n<h2>Article 4 : Organisation de l’action</h2>\r\nModalité : <span class=\"locked keyword\">session:modalite</span>\r\n\r\nL’action de formation aura lieu du <span class=\"locked keyword\">session:premiere_date</span> au <span class=\"locked keyword\">session:derniere_date</span>\r\n\r\nL’action de formation sera animée par <span class=\"locked keyword\">session:formateur</span>\r\n\r\nLes conditions générales dans lesquelles la formation est dispensée, notamment les moyens pédagogiques et techniques, sont les suivantes :\r\n\r\n<span class=\"locked keyword\">session:modalites_pedagogiques</span>\r\n\r\n<span class=\"locked keyword\">session:materiel_pedagogique</span>\r\n<h2>Article 5 : Modalités d’évaluation-contrôle des connaissances</h2>\r\n<span class=\"locked keyword\">session:modalites_evaluation</span>\r\n<h2>Article 6 : Délai de rétractation</h2>\r\nÀ compter de la date de signature du présent contrat, le stagiaire dispose d’un délai de :\r\n<ul>\r\n \t<li>dix jours pour se rétracter.</li>\r\n \t<li>quatorze jours pour se rétracter (contrats conclus à distance, à la suite d’un démarchage téléphonique ou hors établissement.)</li>\r\n</ul>\r\nLe stagiaire souhaitant se rétracter en informe l’organisme de formation par lettre recommandée avec accusé de réception. Dans ce cas, aucune somme ne peut être exigée du stagiaire.\r\n<h2>Article 7 : Dispositions financières</h2>\r\nLe prix de l’action est fixé à <span class=\"locked keyword\">session:tarif_total_chiffre</span> euros HT + <span class=\"locked keyword\">session:tarif_total_chiffre:tva</span> euros de TVA.\r\n\r\nLes modalités de paiement de la somme de <span class=\"locked keyword\">client:tarif_total_chiffre</span> € HT + <span class=\"locked keyword\">client:tarif_total_chiffre:tva</span> euros de TVA incombant au stagiaire sont les suivants :\r\n\r\nAprès un délai de rétractation mentionné à l’article 7 du présent contrat, le stagiaire effectue un premier versement d’un montant de <span class=\"locked keyword\">client:acompte:ht</span> € HT (soit <span class=\"locked keyword\">client:acompte:ttc</span> € TTC). Cette somme ne peut être supérieure à 30 % du prix dû par le stagiaire. Le paiement du solde, à la charge du stagiaire, est échelonné au fur à mesure du déroulement de l’action de formation, après dispensation des heures de formation, selon le calendrier suivant :\r\n\r\n<span class=\"locked keyword\">client:echeancier</span>\r\n<h2>Article 8 : Interruption du stage</h2>\r\nEn cas de cessation anticipée de l’action du fait du prestataire de formation professionnelle ou l’abandon du stage par le stagiaire pour un autre motif que la force majeure dûment reconnue, le présent contrat est résilié selon les modalités financières suivantes :\r\n\r\n<span class=\" locked keyword\">document:modalites_resiliation</span>\r\n\r\nSi le stagiaire est empêché de suivre l’action par suite de force majeure dûment reconnue, le contrat de formation professionnelle est résilié. Dans ce cas, seules les prestations effectivement dispensées sont dues au prorata temporis de leur valeur prévue au présent contrat.\r\n<h2>Article 9 : Cas de différend</h2>\r\nSi une constatation ou un différend n’ont pu être réglés à l’amiable, le tribunal de Paris sera seul compétent pour régler le litige.\r\n\r\nFait en double exemplaire, à <span class=\"locked keyword\">of:ville</span> le, <span class=\"locked keyword\">of:today</span>\r\n<table class=\"signature\">\r\n<tbody>\r\n<tr>\r\n<td style=\"text-align: center;\">Pour le stagiaire\r\n\r\n<span class=\"locked keyword\">client:nom</span>\n</td>\r\n<td style=\"text-align: center;\">Pour l’organisme\r\n\r\n<span class=\"locked keyword\">of:responsable_nom</span>, <span class=\"locked keyword\">of:responsable_fonction</span>\r\n\r\n<span class=\"locked keyword\">of:image_signature</span>\n</td>\r\n</tr>\r\n</tbody>\r\n</table>\r\n<div class=\"footnote\">\r\n\r\nInformation des stagiaires Article L6353-8 :\r\n\r\nLes objectifs et le contenu de la formation, la liste des formateurs et des enseignants, les horaires, les modalités d'évaluation, les coordonnées de la personne chargée des relations avec les stagiaires ou les apprentis par l'entité commanditaire de la formation et le règlement intérieur applicable à la formation sont mis à disposition du stagiaire et de l'apprenti avant leur inscription définitive.\r\n\r\nDans le cas des contrats conclus en application de l'article L. 6353-3, ces informations ainsi que les tarifs, les modalités de règlement et les conditions financières prévues en cas de cessation anticipée de la formation ou d'abandon en cours de stage sont remis au stagiaire potentiel avant son inscription définitive et tout règlement de frais.\r\n\r\n</div>",
    "contexte": "136",
    "signature": "8",
    "is_contrat": "",
    "orientation": "portrait",
    "ckw": {
      "modalites_resiliation": {
        "key": "modalites_resiliation",
        "desc": "Modalités de résiliation",
        "type": "text",
        "needed": "1",
        "defaut": ""
      }
    },
    "id": 491
  },
  {
    "desc": "Convention base",
    "titre": "Convention de formation",
    "slug": "convention_base",
    "contenu": "<p style=\"text-align: center;\"><strong>(Article L.6353-1 du Code du travail)</strong></p>\r\nEntre les soussignés :\r\n\r\n<span class=\"locked keyword locked\">of:nom</span> (Organisme de formation) enregistré sous le numéro de déclaration d'activité <span class=\"locked keyword locked\">of:no_of</span> auprès du préfet de la région Île-de-France.\r\nci-après dénommé <strong>« le prestataire »</strong>\r\n\r\net\r\n\r\n<span class=\"locked keyword locked\">client:nom</span> représentée par <span class=\"locked keyword locked\">client:responsable</span> est conclue la convention suivante, en application des dispositions du Livre III de la Sixième partie du Code du travail portant organisation de la formation professionnelle continue.\r\nCi-après dénommé <strong>« l’employeur »</strong>\r\n<h2>Article 1er : Objet de la convention</h2>\r\nL’organisme <span class=\"locked keyword locked\">of:nom</span> organisera l’action de formation suivante :\r\n<h3>Intitulé du stage</h3>\r\n<span class=\"locked keyword locked\">session:titre_formation</span>\r\n<h3>Objectifs pédagogiques et opérationnels</h3>\r\n<span class=\"locked keyword locked\">session:objectifs</span>\r\n<h3>Programme</h3>\r\n<span class=\"locked keyword locked\">session:programme</span>\r\n<h3>Méthodes</h3>\r\n<span class=\"locked keyword locked\">session:modalites_pedagogiques</span>\r\n<ul>\r\n \t<li>Type d’action de formation (article L.6313-1 du Code du travail) : <span class=\"locked keyword locked\">session:nature_formation</span>\n</li>\r\n \t<li>Dates : <span class=\"locked keyword locked\">session:dates</span>\n</li>\r\n \t<li>Durée : <span class=\"locked keyword locked\">session:duree</span> heures sur <span class=\"locked keyword locked\">session:nb_jour</span> jours</li>\r\n \t<li>Lieu : <span class=\"locked keyword locked\">session:lieu_nom</span> <span class=\"test-expression\" title=\"\"><span class=\"locked test\" data-kw=\"if\"> si </span> <span class=\"locked keyword locked\">session:lieu_adresse</span> <span class=\"locked test\" data-kw=\"sign\" data-sign=\"vrai\">est vrai</span><span class=\"locked test\" data-kw=\"then\"> alors </span> <span class=\"locked keyword locked\">session:lieu_adresse</span> – <span class=\"locked test\" data-kw=\"else\"> sinon </span> <span class=\"locked test\" data-kw=\"fi\"> fin test </span></span><span class=\"test-expression\" title=\"\"><span class=\"locked test\" data-kw=\"if\"> si </span> <span class=\"locked keyword locked\">session:lieu_code_postal</span> <span class=\"locked test\" data-kw=\"sign\" data-sign=\"vrai\">est vrai</span><span class=\"locked test\" data-kw=\"then\"> alors </span> <span class=\"locked keyword locked\">session:lieu_code_postal</span> <span class=\"locked test\" data-kw=\"else\"> sinon </span> <span class=\"locked test\" data-kw=\"fi\"> fin test </span></span>  <span class=\"locked keyword locked\">session:lieu_ville</span>\n</li>\r\n</ul>\r\n<h2>Article 2 : Effectif formé</h2>\r\nL’organisme <span class=\"locked keyword locked\">of:nom</span> accueillera les personnes suivantes (noms et fonctions) :\r\n\r\n<span class=\"locked keyword locked\">client:stagiaires:tableau</span>\r\n<h2>Article 3 : Dispositions financières</h2>\r\nEn contrepartie de cette action de formation, l’employeur s’acquittera des coûts suivants :\r\n\r\nFrais de formation : coût unitaire H.T <span class=\"locked keyword locked\">client:tarif_stagiaire</span> euros × <span class=\"locked keyword locked\">client:nb_confirmes</span> stagiaire(s) = <span class=\"locked keyword locked\">client:tarif_total_chiffre</span> € HT.\r\n\r\n<span class=\"test-expression\" title=\"\"><span class=\"locked test\" data-kw=\"if\"> si </span> <span class=\"locked keyword locked\">client:tarif_total_autres_chiffre</span> <span class=\"locked test\" data-kw=\"sign\" data-sign=\"sup\">supérieur à</span> 0 <span class=\"locked test\" data-kw=\"then\"> alors </span> Dont frais non pédagogiques pour <span class=\"locked keyword locked\">client:autres_frais</span> coût unitaire H.T. <span class=\"locked keyword locked\">client:tarif_total_autres_chiffre</span> € HT <span class=\"locked test\" data-kw=\"else\"> sinon </span><span class=\"locked test\" data-kw=\"fi\"> fin test </span></span>\r\n\r\nSoit un total de : <span class=\"locked keyword locked\">client:tarif_total_chiffre</span> € H.T.\r\n\r\n<span class=\"test-expression\" title=\"\"><span class=\"locked test\" data-kw=\"if\"> si </span> <span class=\"locked keyword locked\">client:acompte</span> <span class=\"locked test\" data-kw=\"sign\" data-sign=\"sup\">supérieur à</span> 0 <span class=\"locked test\" data-kw=\"then\"> alors </span> Somme versée par l’entreprise à titre d’acompte : <span class=\"locked keyword locked\">client:acompte</span> € HT <span class=\"locked test\" data-kw=\"else\"> sinon </span> <span class=\"locked test\" data-kw=\"fi\"> fin test </span></span>\r\n\r\nT.V.A. (20 %) <span class=\"locked keyword locked\">client:tarif_total_chiffre:tva</span> €\r\n\r\n<strong>TOTAL GÉNÉRAL <span class=\"locked keyword locked\">client:tarif_total_chiffre:ttc</span> € TTC</strong>\r\n<h2>Article 4 : Modalités de règlement</h2>\r\nLe paiement sera dû à réception de la facture.\r\n<h2>Article 5 : Dédit ou abandon</h2>\r\nEn cas de dédit par l’entreprise à moins de 15 jours francs avant le début de l’action mentionnée à l’article 1, ou d’abandon en cours de formation par un ou plusieurs stagiaires, l’organisme remboursera sur le coût total, les sommes qu’il n’aura pas réellement dépensées ou engagées pour la réalisation de ladite action.\r\n<h2>Article 6 : Différends éventuels</h2>\r\nSi une contestation ou un différend ne peuvent être réglés à l’amiable, le Tribunal de Paris sera seul compétent pour régler le litige.\r\n\r\nFait en double exemplaire, à <span class=\"locked keyword locked\">of:ville</span> le <span class=\"locked keyword locked\">of:today</span>\r\n<table class=\"signature\">\r\n<tbody>\r\n<tr>\r\n<td>\r\n<p style=\"text-align: center;\">Pour l’employeur</p>\r\n<p style=\"text-align: center;\"><span class=\"locked keyword locked\">client:responsable</span> (<span class=\"locked keyword locked\">client:responsable_fonction</span>)</p>\r\n</td>\r\n<td>\r\n<p style=\"text-align: center;\">Pour l’organisme de formation</p>\r\n<p style=\"text-align: center;\"><span class=\"locked keyword locked\">of:responsable_nom</span> (<span class=\"locked keyword locked\">of:responsable_fonction</span>)</p>\r\n<p style=\"text-align: center;\"><span class=\"locked keyword locked\">of:image_signature</span></p>\r\n</td>\r\n</tr>\r\n</tbody>\r\n</table>\r\n&nbsp;",
    "contexte": "9",
    "signature": "72",
    "is_contrat": "",
    "orientation": "portrait",
    "ckw": [],
    "id": 465
  },
  {
    "desc": "Feuille collective d'émargement vierge",
    "titre": "Feuille d'émargement",
    "slug": "feuille_collective_demargement_vierge",
    "contenu": "<table style=\"border-collapse: collapse; width: 100%; height: 127px;\" border=\"1\">\r\n<tbody>\r\n<tr style=\"height: 127px;\">\r\n<td style=\"width: 50%; border-style: solid; border-color: #000000; vertical-align: top; height: 127px;\">Raison sociale de l’organisme de formation : <span class=\"keyword locked\">of:nom</span> / <span class=\"keyword locked\">formateur:marque</span>\r\nContact : <span class=\"keyword locked\">of:responsable_nom</span> — <span class=\"keyword locked\">of:email</span> — <span class=\"keyword locked\">of:telephone</span>\r\nIntitulé de la formation : <strong><span class=\"keyword locked\">session:titre_formation</span></strong>\n</td>\r\n<td style=\"width: 50%; text-align: right; vertical-align: top; height: 127px;\">Période globale de formation : <strong><span class=\"keyword locked\">session:dates</span></strong>\r\nPériode de formation concernée par la feuille d'émargement : <strong><span class=\"keyword locked\">client:emargement_dates_par_page</span></strong>\r\nLieu de la formation : <span class=\"keyword locked\">session:lieu_nom</span> – <span class=\"keyword locked\">session:lieu_adresse</span> – <span class=\"keyword locked\">session:lieu_code_postal</span> <span class=\"keyword locked\">session:lieu_ville</span>\n</td>\r\n</tr>\r\n</tbody>\r\n</table>\r\n<span class=\"keyword locked\">client:emargement_collectif_vierge:11x4</span>",
    "contexte": "9",
    "signature": "2049",
    "is_contrat": "",
    "orientation": "landscape",
    "ckw": [],
    "id": 169
  },
  {
    "desc": "Feuille collective d'émargement pré-remplie",
    "titre": "Feuille d'émargement",
    "slug": "feuille_collective_demargement",
    "contenu": "<table style=\"width: 100%; border-collapse: collapse; height: 166px;\" border=\"0\">\r\n<tbody>\r\n<tr style=\"height: 166px;\">\r\n<td style=\"width: 48.2813%; vertical-align: top; height: 166px;\">Raison sociale de l’organisme de formation : <span class=\"keyword locked\">of:nom</span> / <span class=\"keyword locked\">formateur:marque</span>\r\nContact : <span class=\"keyword locked\">of:responsable_nom</span> — <span class=\"keyword locked\">of:email</span> — <span class=\"keyword locked\">of:telephone</span>\r\nIntitulé de la formation : <strong><span class=\"keyword locked\">session:titre_formation</span></strong>\r\nClient : <strong><span class=\"locked keyword locked\">client:nom</span></strong>\n</td>\r\n<td style=\"width: 51.7187%; text-align: right; height: 166px;\">Période globale de formation : <strong><span class=\"keyword locked\">session:dates</span></strong>\r\nPériode de formation concernée par la feuille d'émargement : <strong><span class=\"keyword locked\">client:emargement_dates_par_page</span></strong>\r\nLieu de la formation : <span class=\"keyword locked\">session:lieu_nom</span> – <span class=\"keyword locked\">session:lieu_adresse</span> – <span class=\"keyword locked\">session:lieu_code_postal</span> <span class=\"keyword locked\">session:lieu_ville</span>\n</td>\r\n</tr>\r\n</tbody>\r\n</table>\r\n<span class=\"keyword locked\">client:emargement_collectif_stagiaires:10x4</span>\r\n\r\n&nbsp;\r\n\r\n&nbsp;",
    "contexte": "9",
    "signature": "2049",
    "is_contrat": "",
    "orientation": "landscape",
    "ckw": [],
    "id": 16
  }
]